<svg id="Group_1873" data-name="Group 1873" xmlns="http://www.w3.org/2000/svg" width="24" height="24" viewBox="0 0 24 24">
  <rect id="Rectangle_315" data-name="Rectangle 315" width="24" height="24" rx="6" fill="#ffd54f"/>
  <g id="ice-crystal" transform="translate(4.352 3.516)">
    <path id="Path_670" data-name="Path 670" d="M34.851,8.989l-3.089.827-1.191-.687V7.84l1.177-.676L34.85,8A.722.722,0,0,0,35.224,6.6l-1.7-.456,1.568-.9a.722.722,0,1,0-.719-1.252L32.8,4.9l.456-1.7a.722.722,0,1,0-1.394-.374l-.828,3.089-1.184.68L28.727,5.94V4.578L31,2.307a.722.722,0,1,0-1.021-1.021l-1.25,1.25V.722a.722.722,0,0,0-1.444,0V2.527L26.043,1.286a.722.722,0,1,0-1.021,1.021l2.262,2.262V5.945l-1.114.643-1.184-.68L24.157,2.82a.722.722,0,1,0-1.394.374l.456,1.7-1.571-.9a.722.722,0,1,0-.719,1.252l1.568.9L20.8,6.6A.722.722,0,1,0,21.169,8l3.1-.832,1.176.675v1.29l-1.191.688-3.089-.829a.722.722,0,1,0-.373,1.394l1.695.455-1.563.9a.722.722,0,0,0,.362,1.347.71.71,0,0,0,.36-.1l1.571-.907-.457,1.708a.722.722,0,0,0,.511.884.714.714,0,0,0,.187.025.722.722,0,0,0,.7-.536l.831-3.1,1.183-.682,1.112.642v1.394l-2.262,2.262A.722.722,0,0,0,26.043,15.7l1.241-1.241v1.8a.722.722,0,0,0,1.444,0V14.449l1.25,1.25A.722.722,0,0,0,31,14.678l-2.271-2.271v-1.38l1.122-.647,1.182.682.831,3.1a.722.722,0,1,0,1.394-.373L32.8,12.083l1.572.907a.711.711,0,0,0,.36.1.722.722,0,0,0,.362-1.347l-1.563-.9,1.695-.455a.722.722,0,0,0-.373-1.394Zm-5.724.14-1.117.645-1.116-.645V7.838l1.118-.645,1.117.646Z" transform="translate(-20.26)" fill="#343434"/>
  </g>
</svg>
