<svg id="Group_1894" data-name="Group 1894" xmlns="http://www.w3.org/2000/svg" width="24.014" height="24.014" viewBox="0 0 24.014 24.014">
  <path id="facebook_1_" data-name="facebook (1)" d="M20.78,0H3.238A3.236,3.236,0,0,0,0,3.236V20.778a3.236,3.236,0,0,0,3.236,3.236h8.651l.015-8.581H9.675a.526.526,0,0,1-.526-.524l-.011-2.766a.526.526,0,0,1,.526-.528h2.225V8.942c0-3.1,1.894-4.791,4.661-4.791h2.27a.526.526,0,0,1,.526.526V7.009a.526.526,0,0,1-.526.526H17.428c-1.5,0-1.8.715-1.8,1.764v2.314h3.306a.526.526,0,0,1,.522.588l-.328,2.766a.526.526,0,0,1-.522.464H15.647l-.015,8.581H20.78a3.236,3.236,0,0,0,3.236-3.236V3.236A3.236,3.236,0,0,0,20.78,0Z" transform="translate(-0.002)" fill="#3b5998"/>
  <path id="facebook_1_2" data-name="facebook (1)" d="M11.889,24.014l.015-8.581H9.675a.526.526,0,0,1-.526-.524l-.011-2.766a.526.526,0,0,1,.526-.528h2.225V8.942c0-3.1,1.894-4.791,4.661-4.791h2.27a.526.526,0,0,1,.526.526V7.009a.526.526,0,0,1-.526.526H17.428c-1.5,0-1.8.715-1.8,1.764v2.314h3.306a.526.526,0,0,1,.522.588l-.328,2.766a.526.526,0,0,1-.522.464H15.647l-.015,8.581Z" transform="translate(-0.002)" fill="#fff"/>
</svg>
