<svg xmlns="http://www.w3.org/2000/svg" width="53.957" height="40.466" viewBox="0 0 53.957 40.466">
  <g id="menu" transform="translate(-119.465 -153.601)">
    <path id="Path_725" data-name="Path 725" d="M170.049,160.346H122.838a3.372,3.372,0,1,1,0-6.744h47.211a3.372,3.372,0,1,1,0,6.744Zm0,0" fill="#fff"/>
    <path id="Path_726" data-name="Path 726" d="M170.049,245.678H122.838a3.372,3.372,0,1,1,0-6.744h47.211a3.372,3.372,0,1,1,0,6.744Zm0,0" transform="translate(0 -68.471)" fill="#fff"/>
    <path id="Path_727" data-name="Path 727" d="M170.049,331.01H122.838a3.372,3.372,0,1,1,0-6.744h47.211a3.372,3.372,0,1,1,0,6.744Zm0,0" transform="translate(0 -136.942)" fill="#fff"/>
  </g>
</svg>
