<svg xmlns="http://www.w3.org/2000/svg" width="23.998" height="23.998" viewBox="0 0 23.998 23.998">
  <g id="instagram_1_" data-name="instagram (1)" transform="translate(-0.347 -0.002)">
    <path id="Subtraction_2" data-name="Subtraction 2" d="M22167.346,20813h-16a4.005,4.005,0,0,1-4-4v-16a4.005,4.005,0,0,1,4-4h16a4.005,4.005,0,0,1,4,4v16A4.005,4.005,0,0,1,22167.346,20813Zm-8.146-3.1c.3,0,.613,0,.912,0l.289,0c.2,0,.41,0,.613,0,2.838,0,5.477-.234,6.576-3.07a14.128,14.128,0,0,0,.471-4.908l0-.021c0-.279,0-.568,0-.869,0-.33,0-.648,0-.955l0-.008c.016-2.947.025-4.895-1.494-6.416-1.379-1.383-3.2-1.492-5.441-1.492-.279,0-.564,0-.861,0l-.039,0c-.33,0-.672,0-1.025,0-.295,0-.588,0-.879,0l-.01,0c-.283,0-.566,0-.844,0-2.992,0-5.559.23-6.664,3.063a14.183,14.183,0,0,0-.469,4.941c0,.279,0,.568,0,.867v.723a15.531,15.531,0,0,0,.467,5.076c1.1,2.838,3.678,3.068,6.684,3.068.277,0,.557,0,.838,0l.008,0C22158.619,20809.9,22158.908,20809.9,22159.2,20809.9Zm2.014-1.588c-.311,0-.625,0-.961-.006l-.24,0c-.266,0-.539-.006-.812-.006-7.057,0-7.262-.205-7.262-7.262,0-3.623.148-5.393,1.02-6.307s2.379-.953,5.447-.955c.406,0,.789,0,1.16-.006l.322,0c.408,0,.8-.006,1.166-.006,2.252,0,3.543.154,4.342.992,1.2,1.252,1.281,4.055,1.016,9.863C22166.256,20808.041,22164.063,20808.314,22161.213,20808.314Zm-2.014-11.828a4.552,4.552,0,1,0,4.547,4.557A4.558,4.558,0,0,0,22159.2,20796.486Zm4.73-1.242a1.063,1.063,0,1,0,1.063,1.064A1.064,1.064,0,0,0,22163.93,20795.244Zm-4.73,8.748a2.822,2.822,0,0,1-2.934-2.953,3.059,3.059,0,0,1,.734-2.029,2.964,2.964,0,1,1,2.2,4.982Z" transform="translate(-22147 -20789)" fill="#ffd54f"/>
  </g>
</svg>
