<svg xmlns="http://www.w3.org/2000/svg" xmlns:xlink="http://www.w3.org/1999/xlink" width="24" height="24" viewBox="0 0 24 24">
  <defs>
    <linearGradient id="linear-gradient" x1="0.057" y1="0.052" x2="0.937" y2="0.96" gradientUnits="objectBoundingBox">
      <stop offset="0" stop-color="#fd5"/>
      <stop offset="0.498" stop-color="#ff543e"/>
      <stop offset="1" stop-color="#c837ab"/>
    </linearGradient>
  </defs>
  <g id="instagram_1_" data-name="instagram (1)" transform="translate(-0.346)">
    <rect id="Rectangle_332" data-name="Rectangle 332" width="24" height="24" rx="4" transform="translate(0.346)" fill="url(#linear-gradient)"/>
    <path id="Path_740" data-name="Path 740" d="M12,3.139c-3.631,0-7.079-.323-8.4,3.057-.544,1.4-.465,3.209-.465,5.8,0,2.278-.073,4.419.465,5.8,1.314,3.382,4.79,3.058,8.394,3.058,3.477,0,7.062.362,8.4-3.058.545-1.41.465-3.2.465-5.8,0-3.462.191-5.7-1.488-7.375-1.7-1.7-4-1.487-7.374-1.487Zm-.794,1.6c7.574-.012,8.538-.854,8.006,10.843-.189,4.137-3.339,3.683-7.211,3.683-7.06,0-7.263-.2-7.263-7.265,0-7.145.56-7.257,6.468-7.263Zm5.524,1.471A1.063,1.063,0,1,0,17.791,7.27,1.063,1.063,0,0,0,16.728,6.207ZM12,7.45A4.55,4.55,0,1,0,16.547,12,4.551,4.551,0,0,0,12,7.45Zm0,1.6c3.9,0,3.91,5.908,0,5.908S8.088,9.047,12,9.047Z" transform="translate(0.201 0.038)" fill="#fff"/>
  </g>
</svg>
