<svg id="close_1_" data-name="close (1)" xmlns="http://www.w3.org/2000/svg" width="6.487" height="6.487" viewBox="0 0 6.487 6.487">
  <path id="Path_676" data-name="Path 676" d="M80.168,86.319a.572.572,0,0,0,.809,0l2.266-2.266,2.266,2.266a.572.572,0,0,0,.81-.81l-2.266-2.266,2.267-2.266a.572.572,0,0,0-.81-.81l-2.266,2.267-2.266-2.267a.572.572,0,0,0-.81.81l2.266,2.267L80.168,85.51A.572.572,0,0,0,80.168,86.319Z" transform="translate(-80.001 -79.999)" fill="#616161"/>
</svg>
