<svg id="search" xmlns="http://www.w3.org/2000/svg" width="23.987" height="23.986" viewBox="0 0 23.987 23.986">
  <g id="Group_1560" data-name="Group 1560">
    <path id="Path_609" data-name="Path 609" d="M17.144,15.086h-1.09l-.377-.377a8.851,8.851,0,1,0-.967.974l.377.377v1.083l6.857,6.843,2.044-2.043Zm-8.229,0a6.171,6.171,0,1,1,6.172-6.171A6.172,6.172,0,0,1,8.915,15.086Z" fill="#28211e"/>
  </g>
</svg>
