<svg xmlns="http://www.w3.org/2000/svg" width="24.031" height="19.99" viewBox="0 0 24.031 19.99">
  <path id="twitter" d="M23.649,36.816a9.516,9.516,0,0,1-1.657.559A5.166,5.166,0,0,0,23.356,35.2h0a.271.271,0,0,0-.4-.316h0a9.561,9.561,0,0,1-2.533,1.047.646.646,0,0,1-.158.02.671.671,0,0,1-.444-.169A5.181,5.181,0,0,0,16.4,34.491a5.539,5.539,0,0,0-1.641.253,5.019,5.019,0,0,0-3.383,3.616,5.527,5.527,0,0,0-.123,1.908.186.186,0,0,1-.047.145.192.192,0,0,1-.143.065h-.018A13.585,13.585,0,0,1,1.7,35.489h0a.271.271,0,0,0-.444.035h0a5.187,5.187,0,0,0,.843,6.3,4.643,4.643,0,0,1-1.182-.457h0a.271.271,0,0,0-.4.233h0a5.187,5.187,0,0,0,3.026,4.779H3.435a4.662,4.662,0,0,1-.873-.083h0a.271.271,0,0,0-.309.349h0a5.193,5.193,0,0,0,4.1,3.532A9.56,9.56,0,0,1,1,51.8H.4a.4.4,0,0,0-.388.3.41.41,0,0,0,.2.453A14.22,14.22,0,0,0,7.355,54.48a14.415,14.415,0,0,0,6.106-1.3,13.484,13.484,0,0,0,4.468-3.348,14.678,14.678,0,0,0,2.736-4.582,14.474,14.474,0,0,0,.93-5.015v-.079a.882.882,0,0,1,.33-.686,10.24,10.24,0,0,0,2.06-2.261h0a.271.271,0,0,0-.335-.4Z" transform="translate(0 -34.49)" fill="#76a9ea"/>
</svg>
